{
    "results": [
        {
            "vote_count": 1807,
            "id": 420818,
            "video": false,
            "vote_average": 7.2,
            "title": "The Lion King",
            "popularity": 317.552,
            "poster_path": "/2bXbqYdUdNVa8VIWXVfclP2ICtT.jpg",
            "original_language": "en",
            "original_title": "The Lion King",
            "genre_ids": [
                12,
                16,
                10751,
                18,
                28
            ],
            "backdrop_path": "/1TUg5pO1VZ4B0Q1amk3OlXvlpXV.jpg",
            "adult": false,
            "overview": "Simba idolises his father, King Mufasa, and takes to heart his own royal destiny. But not everyone in the kingdom celebrates the new cub's arrival. Scar, Mufasa's brother—and former heir to the throne—has plans of his own. The battle for Pride Rock is ravaged with betrayal, tragedy and drama, ultimately resulting in Simba's exile. With help from a curious pair of newfound friends, Simba will have to figure out how to grow up and take back what is rightfully his.",
            "release_date": "2019-07-12"
        },
        {
            "vote_count": 647,
            "id": 384018,
            "video": false,
            "vote_average": 6.6,
            "title": "Fast & Furious Presents: Hobbs & Shaw",
            "popularity": 300.804,
            "poster_path": "/keym7MPn1icW1wWfzMnW3HeuzWU.jpg",
            "original_language": "en",
            "original_title": "Fast & Furious Presents: Hobbs & Shaw",
            "genre_ids": [
                28
            ],
            "backdrop_path": "/hpgda6P9GutvdkDX5MUJ92QG9aj.jpg",
            "adult": false,
            "overview": "A spinoff of The Fate of the Furious, focusing on Johnson's US Diplomatic Security Agent Luke Hobbs forming an unlikely alliance with Statham's Deckard Shaw.",
            "release_date": "2019-08-01"
        },
        {
            "vote_count": 43,
            "id": 566555,
            "video": false,
            "vote_average": 5.1,
            "title": "Detective Conan: The Fist of Blue Sapphire",
            "popularity": 208.847,
            "poster_path": "/86Y6qM8zTn3PFVfCm9J98Ph7JEB.jpg",
            "original_language": "ja",
            "original_title": "名探偵コナン 紺青の拳（フィスト）",
            "genre_ids": [
                16,
                28,
                18,
                9648,
                35
            ],
            "backdrop_path": "/wf6VDSi4aFCZfuD8sX8JAKLfJ5m.jpg",
            "adult": false,
            "overview": "23rd movie in the \"Detective Conan\" franchise.",
            "release_date": "2019-04-12"
        },
        {
            "vote_count": 3028,
            "id": 429617,
            "video": false,
            "vote_average": 7.8,
            "title": "Spider-Man: Far from Home",
            "popularity": 144.29,
            "poster_path": "/rjbNpRMoVvqHmhmksbokcyCr7wn.jpg",
            "original_language": "en",
            "original_title": "Spider-Man: Far from Home",
            "genre_ids": [
                28,
                12,
                878
            ],
            "backdrop_path": "/dihW2yTsvQlust7mSuAqJDtqW7k.jpg",
            "adult": false,
            "overview": "Peter Parker and his friends go on a summer trip to Europe. However, they will hardly be able to rest - Peter will have to agree to help Nick Fury uncover the mystery of creatures that cause natural disasters and destruction throughout the continent.",
            "release_date": "2019-06-28"
        },
        {
            "vote_count": 14,
            "id": 486589,
            "video": false,
            "vote_average": 5,
            "title": "Red Shoes and the Seven Dwarfs",
            "popularity": 141.956,
            "poster_path": "/MBiKqTsouYqAACLYNDadsjhhC0.jpg",
            "original_language": "en",
            "original_title": "Red Shoes and the Seven Dwarfs",
            "genre_ids": [
                16,
                10749
            ],
            "backdrop_path": "/bga3i5jcejBekr2FCGJga1fYCh.jpg",
            "adult": false,
            "overview": "Princes who have been turned into Dwarfs seek the red shoes of a lady in order to break the spell, although it will not be easy.",
            "release_date": "2019-07-25"
        },
        {
            "vote_count": 24,
            "id": 521777,
            "video": false,
            "vote_average": 7.9,
            "title": "Good Boys",
            "popularity": 129.469,
            "poster_path": "/jIthqo2tQmW8TFN1fYpF8FmVL0o.jpg",
            "original_language": "en",
            "original_title": "Good Boys",
            "genre_ids": [
                35
            ],
            "backdrop_path": "/zIZv4pPJRg3YTnWWuotwXnYu1fM.jpg",
            "adult": false,
            "overview": "A group of young boys on the cusp of becoming teenagers embark on an epic quest in the San Fernando Valley to fix their broken toy before their parents get home.",
            "release_date": "2019-07-18"
        },
        {
            "vote_count": 382,
            "id": 466272,
            "video": false,
            "vote_average": 7.6,
            "title": "Once Upon a Time in Hollywood",
            "popularity": 127.812,
            "poster_path": "/8j58iEBw9pOXFD2L0nt0ZXeHviB.jpg",
            "original_language": "en",
            "original_title": "Once Upon a Time in Hollywood",
            "genre_ids": [
                18,
                35,
                28,
                80,
                37
            ],
            "backdrop_path": "/b82nVVhYNRgtsTFV1jkdDwe6LJZ.jpg",
            "adult": false,
            "overview": "A faded television actor and his stunt double strive to achieve fame and success in the film industry during the final years of Hollywood's Golden Age in 1969 Los Angeles.",
            "release_date": "2019-07-25"
        },
        {
            "vote_count": 40,
            "id": 454640,
            "video": false,
            "vote_average": 6.3,
            "title": "The Angry Birds Movie 2",
            "popularity": 110.483,
            "poster_path": "/ebe8hJRCwdflNQbUjRrfmqtUiNi.jpg",
            "original_language": "en",
            "original_title": "The Angry Birds Movie 2",
            "genre_ids": [
                16,
                35,
                28,
                12,
                10751
            ],
            "backdrop_path": "/k7sE3loFwuU2mqf7FbZBeE3rjBa.jpg",
            "adult": false,
            "overview": "Red, Chuck, Bomb and the rest of their feathered friends are surprised when a green pig suggests that they put aside their differences and unite to fight a common threat. Aggressive birds from an island covered in ice are planning to use an elaborate weapon to destroy the fowl and swine.",
            "release_date": "2019-08-02"
        },
        {
            "vote_count": 167,
            "id": 506574,
            "video": false,
            "vote_average": 8,
            "title": "Descendants 3",
            "popularity": 101.362,
            "poster_path": "/7IRy0iHdaS0JI3ng4ZYlk5gLSFn.jpg",
            "original_language": "en",
            "original_title": "Descendants 3",
            "genre_ids": [
                12,
                10751,
                10402
            ],
            "backdrop_path": "/gzdxeOiO76hDoOSKYCxegj7bk4T.jpg",
            "adult": false,
            "overview": "The teenagers of Disney's most infamous villains return to the Isle of the Lost to recruit a new batch of villainous offspring to join them at Auradon Prep.",
            "release_date": "2019-08-09"
        },
        {
            "vote_count": 376,
            "id": 412117,
            "video": false,
            "vote_average": 6.5,
            "title": "The Secret Life of Pets 2",
            "popularity": 99.065,
            "poster_path": "/q3mKnSkzp1doIsCye6ap4KIUAbu.jpg",
            "original_language": "en",
            "original_title": "The Secret Life of Pets 2",
            "genre_ids": [
                12,
                16,
                35,
                10751
            ],
            "backdrop_path": "/etaok7q2E5tV36oXe7GQzhUQ4fX.jpg",
            "adult": false,
            "overview": "Max the terrier must cope with some major life changes when his owner gets married and has a baby. When the family takes a trip to the countryside, nervous Max has numerous run-ins with canine-intolerant cows, hostile foxes and a scary turkey. Luckily for Max, he soon catches a break when he meets Rooster, a gruff farm dog who tries to cure the lovable pooch of his neuroses.",
            "release_date": "2019-05-24"
        },
        {
            "vote_count": 17,
            "id": 571627,
            "video": false,
            "vote_average": 2.6,
            "title": "The Divine Fury",
            "popularity": 97.303,
            "poster_path": "/9Z2qT9iZYLzzsCSYu7A4SEQsKX0.jpg",
            "original_language": "ko",
            "original_title": "사자",
            "genre_ids": [
                28,
                27,
                9648
            ],
            "backdrop_path": "/4MDYpCwqSVO5RcTiZ4GEfePzDdl.jpg",
            "adult": false,
            "overview": "Yong-hu, a world champion martial artist who believes in no God, only himself, suddenly develops stigmata on his palms. Visiting a church in hopes of healing the stigmata, he ends up saving Father Ahn, who falls into danger while performing an exorcism. In this way he learns of the power of the stigmata. As time passes Yong-hu accepts his new calling and begins saving people who are possessed by demons, but then he must prepare for a final confrontation with the evil Jisin, who ensnares people with the power of the devil.",
            "release_date": "2019-07-31"
        },
        {
            "vote_count": 575,
            "id": 531309,
            "video": false,
            "vote_average": 5.8,
            "title": "Brightburn",
            "popularity": 93.284,
            "poster_path": "/sJWwkYc9ajwnPRSkqj8Aue5JbKz.jpg",
            "original_language": "en",
            "original_title": "Brightburn",
            "genre_ids": [
                27,
                878,
                53
            ],
            "backdrop_path": "/uHEI6v8ApQusjbaRZ8o7WcLYeWb.jpg",
            "adult": false,
            "overview": "What if a child from another world crash-landed on Earth, but instead of becoming a hero to mankind, he proved to be something far more sinister?",
            "release_date": "2019-05-09"
        },
        {
            "vote_count": 874,
            "id": 504608,
            "video": false,
            "vote_average": 7.5,
            "title": "Rocketman",
            "popularity": 73.264,
            "poster_path": "/f4FF18ia7yTvHf2izNrHqBmgH8U.jpg",
            "original_language": "en",
            "original_title": "Rocketman",
            "genre_ids": [
                10402,
                18
            ],
            "backdrop_path": "/oAr5bgf49vxga9etWoQpAeRMvhp.jpg",
            "adult": false,
            "overview": "The story of Elton John's life, from his years as a prodigy at the Royal Academy of Music through his influential and enduring musical partnership with Bernie Taupin.",
            "release_date": "2019-05-22"
        },
        {
            "vote_count": 1910,
            "id": 301528,
            "video": false,
            "vote_average": 7.7,
            "title": "Toy Story 4",
            "popularity": 73.259,
            "poster_path": "/w9kR8qbmQ01HwnvK4alvnQ2ca0L.jpg",
            "original_language": "en",
            "original_title": "Toy Story 4",
            "genre_ids": [
                12,
                16,
                35,
                10751
            ],
            "backdrop_path": "/m67smI1IIMmYzCl9axvKNULVKLr.jpg",
            "adult": false,
            "overview": "Woody has always been confident about his place in the world and that his priority is taking care of his kid, whether that's Andy or Bonnie. But when Bonnie adds a reluctant new toy called \"Forky\" to her room, a road trip adventure alongside old and new friends will show Woody how big the world can be for a toy.",
            "release_date": "2019-06-19"
        },
        {
            "vote_count": 46,
            "id": 499701,
            "video": false,
            "vote_average": 5.8,
            "title": "Dora and the Lost City of Gold",
            "popularity": 70.651,
            "poster_path": "/xvYCZ740XvngXK0FNeSNVTJJJ5v.jpg",
            "original_language": "en",
            "original_title": "Dora and the Lost City of Gold",
            "genre_ids": [
                12,
                35,
                10751
            ],
            "backdrop_path": "/843PwG97xLcz7TUW8tKDNrOc2sj.jpg",
            "adult": false,
            "overview": "Dora, a girl who has spent most of her life exploring the jungle with her parents, now must navigate her most dangerous adventure yet: high school. Always the explorer, Dora quickly finds herself leading Boots (her best friend, a monkey), Diego, and a rag tag group of teens on an adventure to save her parents and solve the impossible mystery behind a lost Inca civilization.",
            "release_date": "2019-08-08"
        },
        {
            "vote_count": 293,
            "id": 502416,
            "video": false,
            "vote_average": 5.6,
            "title": "Ma",
            "popularity": 69.206,
            "poster_path": "/6n7ASmQ1wY2cxTubFFGlcvPpyk7.jpg",
            "original_language": "en",
            "original_title": "Ma",
            "genre_ids": [
                53,
                27
            ],
            "backdrop_path": "/mBOv5YrX5QGr5CusK0PKSHuxOt9.jpg",
            "adult": false,
            "overview": "Sue Ann is a loner who keeps to herself in her quiet Ohio town. One day, she is asked by Maggie, a new teenager in town, to buy some booze for her and her friends, and Sue Ann sees the chance to make some unsuspecting, if younger, friends of her own.",
            "release_date": "2019-05-29"
        },
        {
            "vote_count": 405,
            "id": 449562,
            "video": false,
            "vote_average": 6.1,
            "title": "The Hustle",
            "popularity": 66.537,
            "poster_path": "/hHAD7cx1j2RAyjwREVgJeLcLVoi.jpg",
            "original_language": "en",
            "original_title": "The Hustle",
            "genre_ids": [
                35
            ],
            "backdrop_path": "/s6awXOxTKYQLSktiIJfI3969dZH.jpg",
            "adult": false,
            "overview": "Two female scam artists, one low rent and the other high class, compete to swindle a naïve tech prodigy out of his fortune. A remake of the 1988 comedy \"Dirty Rotten Scoundrels.\"",
            "release_date": "2019-05-09"
        },
        {
            "vote_count": 2070,
            "id": 447404,
            "video": false,
            "vote_average": 7,
            "title": "Pokémon Detective Pikachu",
            "popularity": 62.576,
            "poster_path": "/wgQ7APnFpf1TuviKHXeEe3KnsTV.jpg",
            "original_language": "en",
            "original_title": "Pokémon Detective Pikachu",
            "genre_ids": [
                28,
                12,
                14
            ],
            "backdrop_path": "/nDP33LmQwNsnPv29GQazz59HjJI.jpg",
            "adult": false,
            "overview": "In a world where people collect pocket-size monsters (Pokémon) to do battle, a boy comes across an intelligent monster who seeks to be a detective.",
            "release_date": "2019-05-03"
        },
        {
            "vote_count": 830,
            "id": 479455,
            "video": false,
            "vote_average": 5.9,
            "title": "Men in Black: International",
            "popularity": 62.465,
            "poster_path": "/dPrUPFcgLfNbmDL8V69vcrTyEfb.jpg",
            "original_language": "en",
            "original_title": "Men in Black: International",
            "genre_ids": [
                28,
                35,
                878,
                12
            ],
            "backdrop_path": "/2FYzxgLNuNVwncilzUeCGbOQzP7.jpg",
            "adult": false,
            "overview": "The Men in Black have always protected the Earth from the scum of the universe. In this new adventure, they tackle their biggest, most global threat to date: a mole in the Men in Black organization.",
            "release_date": "2019-06-12"
        },
        {
            "vote_count": 477,
            "id": 452832,
            "video": false,
            "vote_average": 5.2,
            "title": "Serenity",
            "popularity": 61.939,
            "poster_path": "/hgWAcic93phg4DOuQ8NrsgQWiqu.jpg",
            "original_language": "en",
            "original_title": "Serenity",
            "genre_ids": [
                53,
                9648
            ],
            "backdrop_path": "/oOROXoQ402tHgK6NowmMUSLffkW.jpg",
            "adult": false,
            "overview": "Baker Dill is a fishing boat captain leading tours off a tranquil, tropical enclave called Plymouth Island. His quiet life is shattered, however, when his ex-wife Karen tracks him down with a desperate plea for help.",
            "release_date": "2019-01-24"
        }
    ],
    "page": 1,
    "total_results": 1000,
    "dates": {
        "maximum": "2019-08-23",
        "minimum": "2019-07-06"
    },
    "total_pages": 50
}
