{
    "page": 1,
    "total_results": 391147,
    "total_pages": 19558,
    "results": [{
        "vote_count": 1,
        "id": 608726,
        "video": false,
        "vote_average": 10,
        "title": "Bellezonismo",
        "popularity": 21.368,
        "poster_path": "\/nEEGFoyHhCK3fJ55fwrUGY0ijbM.jpg",
        "original_language": "es",
        "original_title": "Bellezonismo",
        "genre_ids": [35],
        "backdrop_path": null,
        "adult": false,
        "overview": "",
        "release_date": "2019-07-12"
    }, {
        "vote_count": 1,
        "id": 611993,
        "video": false,
        "vote_average": 10,
        "title": "P Storm",
        "popularity": 23.618,
        "poster_path": "\/kVEyDG0NIPdegsAgfC4HW8d5FaY.jpg",
        "original_language": "en",
        "original_title": "P Storm",
        "genre_ids": [],
        "backdrop_path": null,
        "adult": false,
        "overview": "William Luk, goes undercover as a prisoner to investigate correctional officers who are receiving bribes.",
        "release_date": "2019-07-12"
    }, {
        "vote_count": 19,
        "id": 420818,
        "video": false,
        "vote_average": 5.4,
        "title": "The Lion King",
        "popularity": 165.924,
        "poster_path": "\/dzBtMocZuJbjLOXvrl4zGYigDzh.jpg",
        "original_language": "en",
        "original_title": "The Lion King",
        "genre_ids": [12, 16, 10751, 18],
        "backdrop_path": "\/1TUg5pO1VZ4B0Q1amk3OlXvlpXV.jpg",
        "adult": false,
        "overview": "Simba idolises his father, King Mufasa, and takes to heart his own royal destiny. But not everyone in the kingdom celebrates the new cub's arrival. Scar, Mufasa's brother—and former heir to the throne—has plans of his own. The battle for Pride Rock is ravaged with betrayal, tragedy and drama, ultimately resulting in Simba's exile. With help from a curious pair of newfound friends, Simba will have to figure out how to grow up and take back what is rightfully his.",
        "release_date": "2019-07-12"
    }, {
        "vote_count": 0,
        "id": 496881,
        "video": false,
        "vote_average": 0,
        "title": "売春婦はアルファベットを書く",
        "popularity": 19.649,
        "poster_path": "\/hnaKsWvCcpTx2eyDAWJU1BLMI3M.jpg",
        "original_language": "en",
        "original_title": "売春婦はアルファベットを書く",
        "genre_ids": [28, 12, 16],
        "backdrop_path": null,
        "adult": false,
        "overview": "Visionary director Satoru Kurogawa returns to the world of animation with his feature-length debut",
        "release_date": "2019-07-12"
    }, {
        "vote_count": 0,
        "id": 509874,
        "video": false,
        "vote_average": 0,
        "title": "Lying and Stealing",
        "popularity": 25.907,
        "poster_path": "\/4YrVrPfMEqtFsLmN4HdzERjbveo.jpg",
        "original_language": "en",
        "original_title": "Lying and Stealing",
        "genre_ids": [18, 80],
        "backdrop_path": "\/eY9Fv5KcqC5gg9vhkjLSbG77JHA.jpg",
        "adult": false,
        "overview": "Hoping to leave his criminal lifestyle behind him, a successful art thief teams up with a sexy con woman to pull off the ultimate heist and set himself free.",
        "release_date": "2019-07-12"
    }, {
        "vote_count": 0,
        "id": 511161,
        "video": false,
        "vote_average": 0,
        "title": "Vennila Kabaddi Kuzhu 2",
        "popularity": 33.23,
        "poster_path": "\/m3KwlHlh24fssAh11EqkCwlTJiX.jpg",
        "original_language": "ta",
        "original_title": "வெண்ணிலா கபடிகுழு 2",
        "genre_ids": [18],
        "backdrop_path": "\/yzupY5G8ydZ4BxsScxB1UchL5vV.jpg",
        "adult": false,
        "overview": "Vennila Kabaddi Kuzhu 2 is an upcoming Indian Tamil action sports drama film directed by Selva Sekaran. A sequel to Vennila Kabadi Kuzhu (2009), the film is written by the original's director Suseenthiran and features Vikranth and Arthana in the lead roles.",
        "release_date": "2019-07-12"
    }, {
        "vote_count": 2,
        "id": 531503,
        "video": false,
        "vote_average": 0,
        "title": "Point Blank",
        "popularity": 23.016,
        "poster_path": "\/weAvkxl0dnPevIKD8fwHjiOi6tc.jpg",
        "original_language": "en",
        "original_title": "Point Blank",
        "genre_ids": [80, 18, 28],
        "backdrop_path": null,
        "adult": false,
        "overview": "A nurse is forced to spring a wounded murder suspect from the hospital when the man’s brother kidnaps his pregnant wife and wants to make a trade.",
        "release_date": "2019-07-12"
    }, {
        "vote_count": 0,
        "id": 532402,
        "video": false,
        "vote_average": 0,
        "title": "Summer Night",
        "popularity": 23.481,
        "poster_path": "\/jxOyWUVMjIJ9hppv4MJyCviooN8.jpg",
        "original_language": "en",
        "original_title": "Summer Night",
        "genre_ids": [35, 18],
        "backdrop_path": "\/kA65MGH8IAfZsd6d6E0CUV7GhD1.jpg",
        "adult": false,
        "overview": "In a small town, a young, tight-knit group of friends fall in and out of love over the course of one intoxicating, music-filled summer night.",
        "release_date": "2019-07-12"
    }, {
        "vote_count": 0,
        "id": 534075,
        "video": false,
        "vote_average": 0,
        "title": "Super 30",
        "popularity": 29.303,
        "poster_path": "\/5Gs6FSbnIUAklCzEgnQroqhdJiF.jpg",
        "original_language": "hi",
        "original_title": "सुपर 30",
        "genre_ids": [18],
        "backdrop_path": "\/sEACj18R38zDPhyU7xWmLByDcwq.jpg",
        "adult": false,
        "overview": "Based on life of Patna-based mathematician Anand Kumar who runs the famed Super 30 program for IIT aspirants in Patna.",
        "release_date": "2019-07-12"
    }, {
        "vote_count": 0,
        "id": 542930,
        "video": false,
        "vote_average": 0,
        "title": "Lo nunca visto",
        "popularity": 22.54,
        "poster_path": "\/r6FCJoucFzEqplnKG2GFkLIQMgq.jpg",
        "original_language": "es",
        "original_title": "Lo nunca visto",
        "genre_ids": [35],
        "backdrop_path": null,
        "adult": false,
        "overview": "",
        "release_date": "2019-07-12"
    }, {
        "vote_count": 0,
        "id": 571891,
        "video": false,
        "vote_average": 0,
        "title": "Pokémon: Mewtwo Strikes Back Evolution",
        "popularity": 25.018,
        "poster_path": "\/xTxLDEb48P8Oc87H7JQJnFWNnSK.jpg",
        "original_language": "ja",
        "original_title": "劇場版ポケットモンスター ミュウツーの逆襲 EVOLUTION",
        "genre_ids": [28, 16, 10751],
        "backdrop_path": null,
        "adult": false,
        "overview": "",
        "release_date": "2019-07-12"
    }, {
        "vote_count": 0,
        "id": 576187,
        "video": false,
        "vote_average": 0,
        "title": "I Got the Hook Up 2",
        "popularity": 22.163,
        "poster_path": "\/arGjtgDZx5rJQ8IzyroYi5w9eTH.jpg",
        "original_language": "en",
        "original_title": "I Got the Hook Up 2",
        "genre_ids": [35],
        "backdrop_path": "\/mrAtDBDzFOVtDyE26rtmjRCKBrr.jpg",
        "adult": false,
        "overview": "After best friends Black and Blue's restaurant is shut down, Black needs to find some cash -- fast. He thinks his luck has turned when Blue's son, Fatboy, and his best friend, Spyda,, bring him a stash of stolen cellphones, and Black decides to sell them on the streets. There's only one problem: The boxes with the phones also contain the Colombian cartel's stash of Molly, which Spyda decides to sell.",
        "release_date": "2019-07-12"
    }, {
        "vote_count": 0,
        "id": 588550,
        "video": false,
        "vote_average": 0,
        "title": "The Lover's Manifesto or A Thesis on the Proceedings or Non-Proceedings of Love in Student Government",
        "popularity": 19.968,
        "poster_path": "\/3kndjm7bYulmXTrclmJnNYBqolZ.jpg",
        "original_language": "en",
        "original_title": "The Lover's Manifesto or A Thesis on the Proceedings or Non-Proceedings of Love in Student Government",
        "genre_ids": [10749, 18],
        "backdrop_path": null,
        "adult": false,
        "overview": "Anarchist Sam Wiley and President of Student Government Rachel Morgan are forced to reexamine their political beliefs in order to make their relationship work.",
        "release_date": "2019-07-12"
    }, {
        "vote_count": 0,
        "id": 590969,
        "video": false,
        "vote_average": 0,
        "title": "Armstrong",
        "popularity": 20.07,
        "poster_path": "\/tDHrvhhuPg9BPNAS7xVkh0LNnqk.jpg",
        "original_language": "en",
        "original_title": "Armstrong",
        "genre_ids": [99],
        "backdrop_path": null,
        "adult": false,
        "overview": "Dramatic, moving and deeply human, ARMSTRONG offers the definitive life story of Neil Armstrong: from his childhood in Ohio to his first steps on the Moon, and beyond.",
        "release_date": "2019-07-12"
    }, {
        "vote_count": 0,
        "id": 598017,
        "video": false,
        "vote_average": 0,
        "title": "Gurkha",
        "popularity": 18.991,
        "poster_path": "\/v8q8vjZUHEcMA2d5Cl0nHXgdRek.jpg",
        "original_language": "ta",
        "original_title": "கூர்க்கா",
        "genre_ids": [35],
        "backdrop_path": "\/kFBR2GuAsqxSPCo0oeI2lQPCHtr.jpg",
        "adult": false,
        "overview": "",
        "release_date": "2019-07-12"
    }, {
        "vote_count": 0,
        "id": 602198,
        "video": false,
        "vote_average": 0,
        "title": "Saving Zoë",
        "popularity": 22.912,
        "poster_path": "\/7M3KQLBDkNrbLD1UHA6cvGkqa5k.jpg",
        "original_language": "en",
        "original_title": "Saving Zoë",
        "genre_ids": [18, 9648],
        "backdrop_path": "\/oQkbjQabLCpw99AGhCzmN2BbKQG.jpg",
        "adult": false,
        "overview": "Echo must deal with the regular dramas of high school, in addition to grappling with the murder of her older sister, Zoë. But when Echo receives a diary from Zoë's boyfriend, she begins to untangle the secret life her sister lived.",
        "release_date": "2019-07-12"
    }, {
        "vote_count": 0,
        "id": 603392,
        "video": false,
        "vote_average": 0,
        "title": "Teeth Tongue",
        "popularity": 18.994,
        "poster_path": "\/oTSStGiogK2Egmi0eX3GfY9QwKo.jpg",
        "original_language": "pt",
        "original_title": "Teeth Tongue",
        "genre_ids": [],
        "backdrop_path": null,
        "adult": false,
        "overview": "",
        "release_date": "2019-07-12"
    }, {
        "vote_count": 0,
        "id": 604868,
        "video": false,
        "vote_average": 0,
        "title": "Rescue",
        "popularity": 18.994,
        "poster_path": "\/xey13ItLzOfAKIQI2zGZofdScUJ.jpg",
        "original_language": "en",
        "original_title": "Rescue",
        "genre_ids": [],
        "backdrop_path": null,
        "adult": false,
        "overview": "A religious country, constitutional monarchy. The highest political leader is the prime minister and the religious leader is the king of law. Military power and diplomatic rights are in the hands of the Prime Minister, but the spiritual leader most loved by the people is the King of Law. For forty years or more, the King has become the common existence of totems in the hearts of the people. Once the government implements measures that are not conducive to the people, the King will exert pressure on the government on behalf of the people. Although he does not have real power, he will grasp the people's hearts. Even the highest commander of the army is the King of law, strong supporters. From the perspective of the Prime Minister, he loves and hates the King of Law. For the sake of national economic development, his actual actions will always be obstructed by the King.",
        "release_date": "2019-07-12"
    }, {
        "vote_count": 0,
        "id": 604959,
        "video": false,
        "vote_average": 0,
        "title": "The Town With Many Faces",
        "popularity": 19.096,
        "poster_path": "\/czPkix5xppdt1BddJH7NnDe8GmN.jpg",
        "original_language": "en",
        "original_title": "The Town With Many Faces",
        "genre_ids": [27],
        "backdrop_path": null,
        "adult": false,
        "overview": "A mysterious entity takes advantage of a house inhabitted by college boys in a quiet Canadian town.",
        "release_date": "2019-07-12"
    }, {
        "vote_count": 0,
        "id": 607693,
        "video": false,
        "vote_average": 0,
        "title": "Aruvam",
        "popularity": 22.007,
        "poster_path": null,
        "original_language": "ta",
        "original_title": "அருவம்",
        "genre_ids": [],
        "backdrop_path": null,
        "adult": false,
        "overview": "Aruvam is an upcoming Indian Tamil-language comedy horror film written and directed by Sai Sekhar.",
        "release_date": "2019-07-12"
    }]
}
